{
    "story": [
        {
            "storyName": "1",
            "duration": 6700,
            "words": [
                {
                    "name": "Dans",
                    "time": 0
                },
                {
                    "name": "les",
                    "time": 150
                },
                {
                    "name": "années",
                    "time": 300
                },
                {
                    "name": "50",
                    "time": 700
                },
                {
                    "name": "Stephen",
                    "time": 2400
                },
                {
                    "name": "Cole",
                    "time": 2700
                },
                {
                    "name": "Kleene",
                    "time": 3100
                },
                {
                    "name": "créa",
                    "time": 3600
                },
                {
                    "name": "un",
                    "time": 3800
                },
                {
                    "name": "mystérieux",
                    "time": 3900
                },
                {
                    "name": "pouvoir",
                    "time": 4500
                },
                {
                    "name": "qu'il",
                    "time": 5100
                },
                {
                    "name": "nomma",
                    "time": 5150
                },
                {
                    "name": "les",
                    "time": 6100
                },
                {
                    "name": "Expressions",
                    "time": 6200
                },
                {
                    "name": "régulières",
                    "time": 6700
                }
            ],
            "audio": [
                {
                    "name": "story1",
                    "url": "story1.mp3",
                    "toFetch": "false",
                    "value": "",
                    "volume": 0.04
                }
            ]
        },
        {
            "storyName": "2",
            "duration": 9800,
            "words": [
                {
                    "name": "Fasciné",
                    "time": 0
                },
                {
                    "name": "par",
                    "time": 600
                },
                {
                    "name": "ce",
                    "time": 650
                },
                {
                    "name": "dernier",
                    "time": 800
                },
                {
                    "name": "un",
                    "time": 2200
                },
                {
                    "name": "informaticien",
                    "time": 2300
                },
                {
                    "name": "au",
                    "time": 3100
                },
                {
                    "name": "nom",
                    "time": 3330
                },
                {
                    "name": "de",
                    "time": 3400
                },
                {
                    "name": "Kenneth",
                    "time": 3500
                },
                {
                    "name": "Lane",
                    "time": 3800
                },
                {
                    "name": "Thompson",
                    "time": 4300
                },
                {
                    "name": "travailla",
                    "time": 4900
                },
                {
                    "name": "des",
                    "time": 5300
                },
                {
                    "name": "mois",
                    "time": 5400
                },
                {
                    "name": "durant",
                    "time": 5500
                },
                {
                    "name": "pour",
                    "time": 6500
                },
                {
                    "name": "en",
                    "time": 6550
                },
                {
                    "name": "créer",
                    "time": 6800
                },
                {
                    "name": "une",
                    "time": 7150
                },
                {
                    "name": "version",
                    "time": 7400
                },
                {
                    "name": "utilisable",
                    "time": 7800
                },
                {
                    "name": "sur",
                    "time": 8400
                },
                {
                    "name": "les",
                    "time": 8600
                },
                {
                    "name": "éditeurs",
                    "time": 8650
                },
                {
                    "name": "de",
                    "time": 9200
                },
                {
                    "name": "texte",
                    "time": 9400
                },
                {
                    "name": "de",
                    "time": 9600
                },
                {
                    "name": "l'époque.",
                    "time": 9800
                }
            ],
            "audio": [
                {
                    "name": "story2",
                    "url": "story2.mp3",
                    "toFetch": "false",
                    "value": "",
                    "volume": 0.04
                }
            ]
        },
        {
            "storyName": "3",
            "duration": 9700,
            "words": [
                {
                    "name": "Ce",
                    "time": 0
                },
                {
                    "name": "dont",
                    "time": 300
                },
                {
                    "name": "n'avais",
                    "time": 500
                },
                {
                    "name": "pas",
                    "time": 700
                },
                {
                    "name": "remarqué",
                    "time": 900
                },
                {
                    "name": "notre",
                    "time": 1400
                },
                {
                    "name": "cher",
                    "time": 1500
                },
                {
                    "name": "Kenneth,",
                    "time": 1900
                },
                {
                    "name": "c'est",
                    "time": 3500
                },
                {
                    "name": "que",
                    "time": 3700
                },
                {
                    "name": "grâce",
                    "time": 3900
                },
                {
                    "name": "au",
                    "time": 4100
                },
                {
                    "name": "fruit",
                    "time": 4300
                },
                {
                    "name": "de",
                    "time": 4400
                },
                {
                    "name": "son",
                    "time": 4500
                },
                {
                    "name": "travail,",
                    "time": 4700
                },
                {
                    "name": "il",
                    "time": 5800
                },
                {
                    "name": "provoqua",
                    "time": 6100
                },
                {
                    "name": "la",
                    "time": 6500
                },
                {
                    "name": "création",
                    "time": 6600
                },
                {
                    "name": "d'un",
                    "time": 7000
                },
                {
                    "name": "monde",
                    "time": 7200
                },
                {
                    "name": "parallèle",
                    "time": 7700
                },
                {
                    "name": "au",
                    "time": 8100
                },
                {
                    "name": "notre,",
                    "time": 8200
                },
                {
                    "name": "celui",
                    "time": 8700
                },
                {
                    "name": "des",
                    "time": 9000
                },
                {
                    "name": "expressions",
                    "time": 9200
                },
                {
                    "name": "régulières",
                    "time": 9700
                }
            ],
            "audio": [
                {
                    "name": "story3",
                    "url": "story3.mp3",
                    "toFetch": "false",
                    "value": "",
                    "volume": 0.045
                }
            ]
        },
        {
            "storyName": "4",
            "duration": 12300,
            "words": [
                {
                    "name": "il",
                    "time": 0
                },
                {
                    "name": "est",
                    "time": 100
                },
                {
                    "name": "même",
                    "time": 200
                },
                {
                    "name": "dit",
                    "time": 400
                },
                {
                    "name": "qu'on",
                    "time": 1000
                },
                {
                    "name": "peut",
                    "time": 1200
                },
                {
                    "name": "y",
                    "time": 1300
                },
                {
                    "name": "récupérer",
                    "time": 1400
                },
                {
                    "name": "ce",
                    "time": 1800
                },
                {
                    "name": "pouvoir.",
                    "time": 2000
                },
                {
                    "name": "Mais",
                    "time": 3600
                },
                {
                    "name": "attention,",
                    "time": 3900
                },
                {
                    "name": "seul",
                    "time": 5500
                },
                {
                    "name": "les",
                    "time": 5900
                },
                {
                    "name": "plus",
                    "time": 6200
                },
                {
                    "name": "avertis",
                    "time": 6400
                },
                {
                    "name": "et",
                    "time": 8200
                },
                {
                    "name": "les",
                    "time": 8300
                },
                {
                    "name": "plus",
                    "time": 8400
                },
                {
                    "name": "courageux",
                    "time": 8500
                },
                {
                    "name": "peuvent",
                    "time": 10200
                },
                {
                    "name": "sortir",
                    "time": 10400
                },
                {
                    "name": "indemne",
                    "time": 10800
                },
                {
                    "name": "d'un",
                    "time": 12000
                },
                {
                    "name": "tel",
                    "time": 12200
                },
                {
                    "name": "voyage.",
                    "time": 12300
                }
            ],
            "audio": [
                {
                    "name": "story4",
                    "url": "story4.mp3",
                    "toFetch": "false",
                    "value": "",
                    "volume": 0.05
                }
            ]
        },
        {
            "storyName": "5",
            "duration": 4000,
            "words": [
                {
                    "name": "Bienvenue",
                    "time": 0
                },
                {
                    "name": "dans",
                    "time": 800
                },
                {
                    "name": "le",
                    "time": 1000
                },
                {
                    "name": "monde",
                    "time": 1100
                },
                {
                    "name": "des",
                    "time": 3100
                },
                {
                    "name": "expressions",
                    "time": 3200
                },
                {
                    "name": "régulières",
                    "time": 4000
                }
            ],
            "audio": [
                {
                    "name": "story5",
                    "url": "story5.mp3",
                    "toFetch": "false",
                    "value": "",
                    "volume": 0.05
                }
            ]
        }
    ],
    "audio": [
        {
            "name": "KevinMacLeod-HeavyHeart",
            "url": "KevinMacLeod-HeavyHeart.mp3",
            "toFetch": "false",
            "value": "",
            "volume": 0.013
        },
        {
            "name": "button",
            "url": "button.mp3",
            "toFetch": "false",
            "value": "",
            "volume": 0.003
        },
        {
            "name": "buttonHover",
            "url": "buttonHover.mp3",
            "toFetch": "false",
            "value": "",
            "volume": 1
        }
    ]
}